{
    "consumer" : { "key":"888085dbb4f3940d1a9bfa6d7520b74569baa22795b5d22dc2f7bb16377dd66d",
    "secret":"1f9bf3068ca015d34ec522873a9fec3671aa64390bae47bea8e248c9cc3daa72"},
"token" :{"key": "64d1c79657fc4d7e0c55715a69c544b832731ce6b929a4fa304b700a14994276",
"secret":"81f8f054ac998bfd74a7bec288297dcfea96ed4925f62257992b46a221c1fc94"},
"account":{ "id":"5612432_SB1","host":"5612432-sb1.suitetalk.api.netsuite.com"}
}